{
    "users" : [
        {
            "id": 1,
            "firstName": "Sami",
            "lastName": "Smith",
            "email": "bob@smith.com"
        },
        {
            "id": 2,
            "firstName": "Mimi",
            "lastName": "Canscanza",
            "email": "jorgeCana@hotmailu.com"
        }
    ],
    "objectives": [
        {
            "id": 21,
            "owner": 1,
            "name": "My scary life cartoons.",
            "description": "Let's make a cartoon about your life. Are you scared??",
            "deadline": 7,
            "units": "days",
            "startDate": "2013/02/16",
            "accessList": [1],
            "milestones": [
                {
                    "url": "http://25.media.tumblr.com/f5bde24d97d832b2b9ad1aa718b44fdb/tumblr_mh2z1dYIOr1s2kox0o1_400.gif",
                    "author": {
                        "id": 1,
                        "firstName": "Sami",
                        "lastName": "Smith"
                    },
                    "likeCount": 43,
                    "comments": [
                        {
                            "message": "this what I came up with so far.",
                            "author": {
                                "id": 1,
                                "firstName": "Sami",
                                "lastName": "Smith"
                            },
                            "date": "2013-02-15"
                        }
                    ]
                },
                {
                    "url": "http://media.tumblr.com/2222c96909458082bd44e44387b849ec/tumblr_inline_mgqeqxYKRp1rdzj0h.gif",
                    "author": {
                        "id": 2,
                        "firstName": "Mimi",
                        "lastName": "Canscanza"
                    },
                    "likeCount": 13,
                    "comments": [
                        {
                            "message": "And this is mine, what do you think???",
                            "author": {
                                "id": 2,
                                "firstName": "Mimi",
                                "lastName": "Canscanza"
                            },
                            "date": "2013-02-16"
                        },
                        {
                            "message": "uuu nice ;]",
                            "author": {
                                "id": 1,
                                "firstName": "Sami",
                                "lastName": "Smith"
                            },
                            "date": "2013-02-16"
                        }
                    ]
                }
            ]
        }
    ]
}